{
  apps: [{
    name: 'API',
    script: './init.js',
    watch: false,
    args: '--module=api --log-date-format="YYYY-MM-DD HH:mm Z"'
  }, {
    name: 'Block Manager',
    script: './init.js',
    watch: false,
    args: '--module=blockManager --log-date-format="YYYY-MM-DD HH:mm Z"'
  }, {
    name: 'Worker',
    script: './init.js',
    watch: false,
    args: '--module=worker --log-date-format="YYYY-MM-DD HH:mm Z"'
  }, {
    name: 'Payments',
    script: './init.js',
    watch: false,
    args: '--module=payments --log-date-format="YYYY-MM-DD HH:mm Z"'
  }, {
    name: 'Remote Share',
    script: './init.js',
    watch: false,
    args: '--module=remoteShare --log-date-format="YYYY-MM-DD HH:mm Z"'
  }, {
    name: 'Long Runner',
    script: './init.js',
    watch: false,
    args: '--module=longRunner --log-date-format="YYYY-MM-DD HH:mm Z"'
  }, {
    name: 'Pool',
    script: './init.js',
    watch: false,
    args: '--module=pool --log-date-format="YYYY-MM-DD HH:mm Z"'
  }]
}
